Influenciadores Financeiros – Análise de Rede Social
…
    dividazero 
    Dívida Zero - Cae Galvão 
    Educador financeiro, idealizador do Canal Dívida Zero, escritor, Palestrante corporativo - promovendo bem-estar financeiro
Ajudo empreendedores nas Finanças 
    0,0007934076 
    1.395 

Redesenhando o Grafo para destacar apenas as contas localizadas

influencers <- left_join(influencers,nodes,by=c("User_Name"="label"))

influencers

# A tibble: 35 × 6
   User_Name      Usuário               Descrição PageRank `N. Seguidores`    id
   <chr>          <chr>                 <chr>     <chr>    <chr>           <int>
 1 webtcoficial   We❤Bitcoin            O seu po… 0,01518… "    6.787"       183
 2 b3_oficial     B3                    Nosso co… 0,00976… "  280.799"       133
 3 mat_financeira Matemática Financeira Tweets d… 0,00888… "  106.538"       230
 4 nathfinancas   Nath Finanças 💰      Administ… 0,00649… "  598.436"       249
 5 cvmgovbr       CVM                   Conta of… 0,00641… "   16.260"       132
 6 loopipay       LoopiPay              A LoopiP… 0,00528… "    1.802"        21
 7 rio_bravo      Rio Bravo             Há mais … 0,00528… "    3.111"        24
 8 meubolsoemdia  Meu Bolso em Dia      Aqui voc… 0,00528… "    8.184"        65
 9 osdadosmostram O que os dados mostr… Faço aná… 0,00528… "    3.186"        80
10 febraban       FEBRABAN              Twitter … 0,00528… "   49.964"        94
# ℹ 25 more rows

edges <- edges %>%
  filter(from %in% influencers$id | to %in% influencers$id)

edges

# A tibble: 131 × 2
    from    to
   <int> <int>
 1     2   216
 2     7   219
 3    15   221
 4    18   223
 5    21    21
 6    24    24
 7    24    24
 8    24    24
 9    24    24
10    24    24
# ℹ 121 more rows
…
